<?xml version="1.0" encoding="UTF-8"?>
<svg width="66px" height="66px" viewBox="0 0 66 66" version="1.1" xmlns="http://www.w3.org/2000/svg" xmlns:xlink="http://www.w3.org/1999/xlink">
    <!-- Generator: Sketch 50.2 (55047) - http://www.bohemiancoding.com/sketch -->
    <title>Group 9</title>
    <desc>Created with Sketch.</desc>
    <defs></defs>
    <g id="Page-1" stroke="none" stroke-width="1" fill="none" fill-rule="evenodd">
        <g id="5_Contact-Management-Module-Copy" transform="translate(-653.000000, -257.000000)" stroke="#00519A" stroke-width="3">
            <g id="Group-9" transform="translate(655.000000, 258.000000)">
                <circle id="Oval-2-Copy-3" cx="30.5690283" cy="14.0921053" r="13.1228745"></circle>
                <path d="M55.2461538,50.2597166 C55.2461538,37.4902 44.6146386,27.1384615 31.5,27.1384615 C18.3853614,27.1384615 7.75384615,37.4902 7.75384615,50.2597166 C7.75384615,52.8089132 13.1026053,55.7049443 22.2923077,56.2153846" id="Oval-2-Copy-4"></path>
                <g id="Group-7-Copy" transform="translate(48.000000, 21.500000) scale(-1, 1) translate(-48.000000, -21.500000) translate(33.000000, 0.000000)">
                    <path d="M18.7408001,21.6651977 C22.5943655,20.5649321 25.415491,17.0170719 25.415491,12.8103025 C25.415491,9.8775174 24.0443394,7.26498193 21.9081144,5.57877416 C20.3402573,4.34120188 18.3602816,3.60261016 16.2077987,3.60261016 C13.1845637,3.60261016 10.5016366,5.05964114 8.82291866,7.30980172" id="Oval-2-Copy-3" transform="translate(17.119205, 12.633904) rotate(-140.000000) translate(-17.119205, -12.633904) "></path>
                    <path d="M20.6935645,22.4457562 C19.9489133,22.3445918 19.188365,22.2923077 18.4153846,22.2923077 C9.31543128,22.2923077 0.484615385,29.3459538 0.484615385,38.2846154 C0.484615385,39.3036805 4.55863461,41.3403555 6.78461538,42.1615385" id="Oval-2-Copy-4"></path>
                </g>
                <g id="Group-7-Copy-2">
                    <path d="M16.8023386,21.6651977 C20.655904,20.5649321 23.4770294,17.0170719 23.4770294,12.8103025 C23.4770294,9.8775174 22.1058779,7.26498193 19.9696528,5.57877416 C18.4017957,4.34120188 16.4218201,3.60261016 14.2693371,3.60261016 C11.2461022,3.60261016 8.56317505,5.05964114 6.88445712,7.30980172" id="Oval-2-Copy-3" transform="translate(15.180743, 12.633904) rotate(-140.000000) translate(-15.180743, -12.633904) "></path>
                    <path d="M18.7551029,22.4457562 C18.0104518,22.3445918 17.2499034,22.2923077 16.4769231,22.2923077 C7.37696974,22.2923077 0,29.5385246 0,38.4771862 C0,39.4962514 4.55863461,41.3403555 6.78461538,42.1615385" id="Oval-2-Copy-4"></path>
                </g>
                <path d="M48.4615385,56.2153846 L31.0153846,56.2153846" id="Line-9"></path>
                <path d="M39.7384615,64.9384615 L39.7384615,47.4923077" id="Line-9"></path>
            </g>
        </g>
    </g>
</svg>