<?xml version="1.0" encoding="UTF-8"?>
<svg width="61px" height="61px" viewBox="0 0 61 61" version="1.1" xmlns="http://www.w3.org/2000/svg" xmlns:xlink="http://www.w3.org/1999/xlink">
    <!-- Generator: Sketch 50.2 (55047) - http://www.bohemiancoding.com/sketch -->
    <title>phone-call (1) copy</title>
    <desc>Created with Sketch.</desc>
    <defs></defs>
    <g id="Page-1" stroke="none" stroke-width="1" fill="none" fill-rule="evenodd">
        <g id="5_Contact-Management-Module" transform="translate(-59.000000, -258.000000)" fill="#FFFFFF" fill-rule="nonzero">
            <g id="phone-call-(1)-copy" transform="translate(59.000000, 258.000000)">
                <g id="Group-7">
                    <path d="M47.9833563,37.9778226 C46.7392391,36.688172 45.2386028,35.9986559 43.6481849,35.9986559 C42.0705929,35.9986559 40.5571306,36.6754032 39.2617096,37.9650538 L35.208709,41.9872312 C34.8752343,41.8084677 34.5417595,41.6424731 34.2211108,41.4764785 C33.7593765,41.2466398 33.3232942,41.0295699 32.9513416,40.7997312 C29.1548601,38.3991935 25.7046792,35.2708333 22.3955838,31.2231183 C20.7923399,29.2056452 19.71496,27.5073925 18.932577,25.7836022 C19.984305,24.8259409 20.9590773,23.8299731 21.9081977,22.8723118 C22.2673243,22.5147849 22.6264509,22.1444892 22.9855775,21.7869624 C25.6790273,19.1055108 25.6790273,15.6323925 22.9855775,12.9509409 L19.4840929,9.46505376 C19.0864884,9.06922043 18.676058,8.66061828 18.2912794,8.25201613 C17.5217224,7.46034946 16.7136874,6.64314516 15.8800006,5.87701613 C14.6358833,4.65120968 13.148073,4 11.583307,4 C10.0185409,4 8.5050787,4.65120968 7.22248358,5.87701613 C7.20965763,5.88978495 7.20965763,5.88978495 7.19683168,5.90255376 L2.83600829,10.2822581 C1.19428654,11.9166667 0.25799211,13.9086022 0.0527768918,16.2197581 C-0.255045936,19.9482527 0.847985863,23.421371 1.69449864,25.6942204 C3.77230273,31.2741935 6.8761829,36.4455645 11.5063513,41.9872312 C17.1241179,48.6653226 23.8833941,53.9388441 31.6046167,57.6545699 C34.5545855,59.046371 38.4921525,60.6935484 42.8914537,60.9744624 C43.1607987,60.9872312 43.4429696,61 43.6994887,61 C46.6622834,61 49.1505179,59.9401882 51.1000625,57.8333333 C51.1128884,57.8077957 51.1385403,57.7950269 51.1513663,57.7694892 C51.8183157,56.9650538 52.5878728,56.2372312 53.3959077,55.4583333 C53.9474236,54.9348118 54.5117655,54.3857527 55.0632814,53.8111559 C56.3330505,52.4959677 57,50.9637097 57,49.3931452 C57,47.8098118 56.3202246,46.2903226 55.0248035,45.0134409 L47.9833563,37.9778226 Z M52.5750469,51.4233871 C52.5622209,51.4233871 52.5622209,51.4361559 52.5750469,51.4233871 C52.0748348,51.9596774 51.5617967,52.4448925 51.0102808,52.9811828 C50.176594,53.7728495 49.3300812,54.6028226 48.5348722,55.5349462 C47.2394512,56.9139785 45.713163,57.5651882 43.7123146,57.5651882 C43.5199253,57.5651882 43.3147101,57.5651882 43.1223209,57.5524194 C39.3130134,57.3098118 35.7730508,55.828629 33.118079,54.5645161 C25.8585906,51.0658602 19.4840929,46.0987903 14.1869751,39.8037634 C9.81332572,34.5557796 6.88900885,29.703629 4.95229023,24.4939516 C3.75947677,21.3145161 3.32339444,18.8373656 3.5157837,16.500672 C3.64404321,15.0067204 4.22121102,13.7681452 5.28576496,12.7083333 L9.6594143,8.35416667 C10.2878859,7.76680108 10.9548354,7.44758065 11.6089589,7.44758065 C12.4169938,7.44758065 13.0711173,7.9327957 13.4815477,8.34139785 C13.4943737,8.35416667 13.5071996,8.36693548 13.5200256,8.3797043 C14.3024086,9.10752688 15.0463138,9.8608871 15.8286968,10.6653226 C16.2263013,11.0739247 16.6367317,11.4825269 17.0471622,11.9038978 L20.5486468,15.3897849 C21.9081977,16.7432796 21.9081977,17.9946237 20.5486468,19.3481183 C20.1766942,19.718414 19.8175676,20.0887097 19.445615,20.4462366 C18.3682351,21.5443548 17.342159,22.5658602 16.2263013,23.561828 C16.2006494,23.5873656 16.1749975,23.6001344 16.1621715,23.625672 C15.0591397,24.7237903 15.264355,25.796371 15.4952221,26.5241935 C15.508048,26.5625 15.520874,26.6008065 15.5336999,26.6391129 C16.4443425,28.8353495 17.7269376,30.9038978 19.6764822,33.3682796 L19.6893081,33.3810484 C23.2292706,37.7224462 26.9616224,41.1061828 31.0787527,43.6982527 C31.6046167,44.0302419 32.1433067,44.2983871 32.6563447,44.5537634 C33.118079,44.7836022 33.5541613,45.000672 33.9261139,45.2305108 C33.9774177,45.2560484 34.0287215,45.2943548 34.0800253,45.3198925 C34.5161076,45.5369624 34.9265381,45.6391129 35.3497945,45.6391129 C36.4143484,45.6391129 37.0812979,44.9751344 37.299339,44.7580645 L41.6858143,40.391129 C42.1218967,39.9569892 42.814498,39.4334677 43.622533,39.4334677 C44.4177419,39.4334677 45.0718654,39.9314516 45.4694699,40.3655914 C45.4822959,40.3783602 45.4822959,40.3783602 45.4951218,40.391129 L52.5622209,47.4267473 C53.8832939,48.7291667 53.8832939,50.0698925 52.5750469,51.4233871 Z" id="Shape"></path>
                    <path d="M34.2451299,15.0010477 C37.1808508,15.4941114 39.8476508,16.8836546 41.9766088,19.0127933 C44.1055667,21.1419321 45.4837869,23.8089585 45.9880138,26.7449287 C46.1112692,27.4845243 46.7499566,28 47.4782843,28 C47.5679247,28 47.64636,27.988794 47.7360003,27.977588 C48.5651734,27.8431161 49.1142204,27.0586966 48.9797599,26.229453 C48.3746877,22.6771532 46.6939314,19.4386211 44.1279768,16.8724486 C41.5620222,14.3062761 38.3237651,12.6253771 34.7717668,12.0202535 C33.9425937,11.8857815 33.1694458,12.4348752 33.0237803,13.2529127 C32.8781147,14.0709503 33.4159568,14.8665758 34.2451299,15.0010477 Z" id="Shape"></path>
                    <path d="M60.9743517,26.0552596 C59.8652506,19.5478591 56.7996451,13.6263739 52.0890807,8.91411835 C47.3785162,4.20186279 41.4591561,1.13515679 34.9540909,0.0256574599 C34.0443787,-0.136404239 33.1845137,0.486909988 33.0225102,1.39694876 C32.8729685,2.31945382 33.4835972,3.17962745 34.4057712,3.34168915 C40.212975,4.32652563 45.5092446,7.08157452 49.7213366,11.2827124 C53.9334287,15.4963166 56.675027,20.7944875 57.6595101,26.6037761 C57.79659,27.4265509 58.5069132,28 59.3169309,28 C59.4166254,28 59.5038581,27.9875337 59.6035526,27.9750674 C60.5132647,27.8379383 61.1363553,26.9652984 60.9743517,26.0552596 Z" id="Shape"></path>
                </g>
            </g>
        </g>
    </g>
</svg>