<?xml version="1.0" encoding="UTF-8"?>
<svg width="52px" height="67px" viewBox="0 0 52 67" version="1.1" xmlns="http://www.w3.org/2000/svg" xmlns:xlink="http://www.w3.org/1999/xlink">
    <!-- Generator: Sketch 50.2 (55047) - http://www.bohemiancoding.com/sketch -->
    <title>Group 9 Copy</title>
    <desc>Created with Sketch.</desc>
    <defs></defs>
    <g id="Page-1" stroke="none" stroke-width="1" fill="none" fill-rule="evenodd">
        <g id="5_Contact-Management-Module-Copy" transform="translate(-442.000000, -256.000000)" stroke="#00519A" stroke-width="3">
            <g id="Group-9-Copy" transform="translate(444.000000, 258.000000)">
                <circle id="Oval-2-Copy-3" cx="23.0590763" cy="13.2631579" r="13.2631579"></circle>
                <path d="M48,49.8174006 C48,36.9113781 37.254834,26.4489796 24,26.4489796 C10.745166,26.4489796 0,36.9113781 0,49.8174006 C0,52.3938481 5.40593737,55.3208378 14.6938776,55.8367347" id="Oval-2-Copy-4"></path>
                <path d="M41.1428571,55.8367347 L23.5102041,55.8367347" id="Line-9"></path>
                <path d="M32.3265306,64.6530612 L32.3265306,47.0204082" id="Line-9"></path>
            </g>
        </g>
    </g>
</svg>