<?xml version="1.0" encoding="UTF-8"?>
<svg width="214px" height="226px" viewBox="0 0 214 226" version="1.1" xmlns="http://www.w3.org/2000/svg" xmlns:xlink="http://www.w3.org/1999/xlink">
    <!-- Generator: Sketch 50.2 (55047) - http://www.bohemiancoding.com/sketch -->
    <title>5_Contact Management Module Copy 5@3x</title>
    <desc>Created with Sketch.</desc>
    <defs>
        <linearGradient x1="4.10885028%" y1="-71.5877757%" x2="109.380709%" y2="167.1875%" id="linearGradient-1">
            <stop stop-color="#488CF0" offset="0%"></stop>
            <stop stop-color="#183EB5" offset="100%"></stop>
        </linearGradient>
        <linearGradient x1="4.10885028%" y1="-71.5877757%" x2="100%" y2="133.579799%" id="linearGradient-2">
            <stop stop-color="#2063C4" offset="0%"></stop>
            <stop stop-color="#133BBB" offset="100%"></stop>
        </linearGradient>
    </defs>
    <g id="5_Contact-Management-Module-Copy-5" stroke="none" stroke-width="1" fill="none" fill-rule="evenodd" opacity="0.5">
        <g id="Group" transform="translate(-152.000000, 0.000000)">
            <path d="M0,228.349784 C68.1955367,46.1443378 125.176408,-27.0217301 170.942614,8.85158008 C239.591923,62.6615453 294.840995,224.483817 366,179.123137 C365.928968,216.170913 365.928968,232.579795 366,228.349784 L0,228.349784 Z" id="Path-2" fill="url(#linearGradient-1)"></path>
            <path d="M9,228 C75.5185972,174.539188 131.0983,153.071567 175.739107,163.597138 C242.700319,179.385494 310.546368,240.589172 366,189.378981 C365.930714,200.249151 365.930714,213.122824 366,228 L9,228 Z" id="Path-2" fill="url(#linearGradient-1)"></path>
            <path d="M9,229 C67.7091972,184.979367 124.477523,168.908005 179.304978,180.785915 C261.546161,198.602779 298.433812,247.008441 366,191.732532 C365.931782,199.529387 365.931782,211.951877 366,229 L9,229 Z" id="Path-2" fill="url(#linearGradient-2)"></path>
        </g>
    </g>
</svg>