<?xml version="1.0" encoding="UTF-8"?>
<svg width="54px" height="53px" viewBox="0 0 54 53" version="1.1" xmlns="http://www.w3.org/2000/svg" xmlns:xlink="http://www.w3.org/1999/xlink">
    <!-- Generator: Sketch 50.2 (55047) - http://www.bohemiancoding.com/sketch -->
    <title>Group 7</title>
    <desc>Created with Sketch.</desc>
    <defs></defs>
    <g id="Page-1" stroke="none" stroke-width="1" fill="none" fill-rule="evenodd">
        <g id="5_Contact-Management-Module-Copy" transform="translate(-1099.000000, -265.000000)" stroke="#FFFFFF" stroke-width="3">
            <g id="Group-3" transform="translate(1101.000000, 267.000000)">
                <g id="Group-7">
                    <polygon id="Path" points="0 25.4545455 20.5853631 25.4545455 20.5853631 0 0 0"></polygon>
                    <polygon id="Path" points="0 49.4415838 20.5853631 49.4415838 20.5853631 32.6501025 0 32.6501025"></polygon>
                    <polygon id="Path" points="29.4146369 49.4415838 50 49.4415838 50 27.0529421 29.4146369 27.0529421"></polygon>
                    <polygon id="Path" points="29.4146369 0 29.4146369 20 50 20 50 0"></polygon>
                </g>
            </g>
        </g>
    </g>
</svg>