<?xml version="1.0" encoding="UTF-8"?>
<svg width="44px" height="67px" viewBox="0 0 44 67" version="1.1" xmlns="http://www.w3.org/2000/svg" xmlns:xlink="http://www.w3.org/1999/xlink">
    <!-- Generator: Sketch 50.2 (55047) - http://www.bohemiancoding.com/sketch -->
    <title>Group 3</title>
    <desc>Created with Sketch.</desc>
    <defs></defs>
    <g id="Page-1" stroke="none" stroke-width="1" fill="none" fill-rule="evenodd">
        <g id="5_Contact-Management-Module-Copy-3" transform="translate(-718.000000, -258.000000)">
            <g id="Group-3" transform="translate(720.000000, 260.000000)">
                <g id="Group-Copy">
                    <path d="M20,63 C31.045695,63 40,54.045695 40,43 C40,31.954305 31.045695,23 20,23 C8.954305,23 0,31.954305 0,43" id="Oval" stroke="#FFFFFF" stroke-width="3"></path>
                    <ellipse id="Oval-Copy" stroke="#FFFFFF" stroke-width="3" cx="21.0224877" cy="11.0410959" rx="11.0224877" ry="11.0410959"></ellipse>
                    <g id="pencil-edit-button-(6)" transform="translate(4.000000, 36.000000)" fill="#FFFFFF" fill-rule="nonzero">
                        <path d="M14.3019681,3.83840369 L18.9806884,8.53999346 L7.13755533,20.4411261 L2.46148773,15.7395363 L14.3019681,3.83840369 Z M22.5309321,2.70448804 L20.4444029,0.607740423 C19.6380314,-0.202580141 18.3286507,-0.202580141 17.5195395,0.607740423 L15.5208532,2.61621497 L20.1995735,7.31784844 L22.5309321,4.97507242 C23.156356,4.34654194 23.156356,3.33297481 22.5309321,2.70448804 Z M0.0130197746,22.3479992 C-0.0721269334,22.7330795 0.273852234,23.0781311 0.657099393,22.984483 L5.870748,21.7141811 L1.1946804,17.0125913 L0.0130197746,22.3479992 Z" id="Shape"></path>
                    </g>
                </g>
            </g>
        </g>
    </g>
</svg>