<?xml version="1.0" encoding="UTF-8"?>
<svg width="18px" height="16px" viewBox="0 0 18 16" version="1.1" xmlns="http://www.w3.org/2000/svg" xmlns:xlink="http://www.w3.org/1999/xlink">
    <!-- Generator: Sketch 50.2 (55047) - http://www.bohemiancoding.com/sketch -->
    <title>Mask</title>
    <desc>Created with Sketch.</desc>
    <defs></defs>
    <g id="Page-1" stroke="none" stroke-width="1" fill="none" fill-rule="evenodd">
        <g id="5_Contact-Management-Module" transform="translate(-19.000000, -111.000000)" fill="#DF5492">
            <path d="M35.2,113 L28,113 L26.2,111 L20.8,111 C19.81,111 19,111.9 19,113 L19,125 C19,126.1 19.81,127 20.8,127 L35.2,127 C36.19,127 37,126.1 37,125 L37,115 C37,113.9 36.19,113 35.2,113 L35.2,113 Z M33.3766667,123 L31.4166667,121.853333 L29.4566667,123 L29.9766667,120.78 L28.25,119.286667 L30.5233333,119.093333 L31.4166667,117 L32.31,119.093333 L34.5833333,119.286667 L32.8566667,120.78 L33.3766667,123 L33.3766667,123 Z" id="Mask"></path>
        </g>
    </g>
</svg>