<?xml version="1.0" encoding="UTF-8"?>
<svg width="12px" height="11px" viewBox="0 0 12 11" version="1.1" xmlns="http://www.w3.org/2000/svg" xmlns:xlink="http://www.w3.org/1999/xlink">
    <!-- Generator: Sketch 50.2 (55047) - http://www.bohemiancoding.com/sketch -->
    <title>Star</title>
    <desc>Created with Sketch.</desc>
    <defs></defs>
    <g id="Page-1" stroke="none" stroke-width="1" fill="none" fill-rule="evenodd" stroke-linejoin="round">
        <g id="2_Query-Lead-Data-Copy" transform="translate(-610.000000, -486.000000)" stroke="#000000">
            <g id="Group-15-Copy" transform="translate(85.000000, 462.000000)">
                <g id="Group-8">
                    <g id="Group-21" transform="translate(525.000000, 23.000000)">
                        <polygon id="Star" points="6.35932751 9.67456335 2.97841051 11.4616217 3.6241082 7.6765714 0.888888889 4.9959839 4.66886901 4.44375251 6.35932751 1 8.04978601 4.44375251 11.8297661 4.9959839 9.09454682 7.6765714 9.74024451 11.4616217"></polygon>
                    </g>
                </g>
            </g>
        </g>
    </g>
</svg>