<?xml version="1.0" encoding="UTF-8"?>
<svg width="19px" height="25px" viewBox="0 0 19 25" version="1.1" xmlns="http://www.w3.org/2000/svg" xmlns:xlink="http://www.w3.org/1999/xlink">
    <!-- Generator: Sketch 50.2 (55047) - http://www.bohemiancoding.com/sketch -->
    <title>Search_Contact</title>
    <desc>Created with Sketch.</desc>
    <defs></defs>
    <g id="Page-1" stroke="none" stroke-width="1" fill="none" fill-rule="evenodd">
        <g id="5_Contact-Management-Module-Copy-4" transform="translate(-19.000000, -252.000000)" stroke="#FFFFFF" stroke-width="1.6">
            <g id="Search_Contact" transform="translate(20.000000, 253.000000)">
                <circle id="Oval-2" transform="translate(8.500000, 4.500000) scale(-1, 1) translate(-8.500000, -4.500000) " cx="8.5" cy="4.5" r="4.5"></circle>
                <path d="M16.5625936,20 C16.846307,19.1671171 17,18.2757224 17,17.3490681 C17,12.7380051 13.1944204,9 8.5,9 C3.80557964,9 0,12.7380051 0,17.3490681" id="Oval-2-Copy" transform="translate(8.500000, 14.500000) scale(-1, 1) translate(-8.500000, -14.500000) "></path>
                <g id="Group" transform="translate(4.000000, 13.000000)">
                    <ellipse id="Oval-2-Copy-2" transform="translate(4.517857, 4.107143) scale(-1, 1) translate(-4.517857, -4.107143) " cx="4.51785714" cy="4.10714286" rx="4.51785714" ry="4.10714286"></ellipse>
                    <path d="M8.03174601,7.30158729 L10.8253968,9.84126986" id="Line-8"></path>
                </g>
            </g>
        </g>
    </g>
</svg>